('G:\\Gamma_Register_All\\Gamma_Register_2_3\\build\\GammaRegister_v2_3\\PYZ-00.pyz',
 [('ntpath',
   'c:\\program files (x86)\\python36-32\\lib\\ntpath.py',
   'PYMODULE'),
  ('_strptime',
   'c:\\program files (x86)\\python36-32\\lib\\_strptime.py',
   'PYMODULE'),
  ('stringprep',
   'c:\\program files (x86)\\python36-32\\lib\\stringprep.py',
   'PYMODULE'),
  ('fnmatch',
   'c:\\program files (x86)\\python36-32\\lib\\fnmatch.py',
   'PYMODULE'),
  ('struct',
   'c:\\program files (x86)\\python36-32\\lib\\struct.py',
   'PYMODULE'),
  ('_compat_pickle',
   'c:\\program files (x86)\\python36-32\\lib\\_compat_pickle.py',
   'PYMODULE'),
  ('__future__',
   'c:\\program files (x86)\\python36-32\\lib\\__future__.py',
   'PYMODULE'),
  ('difflib',
   'c:\\program files (x86)\\python36-32\\lib\\difflib.py',
   'PYMODULE'),
  ('ast', 'c:\\program files (x86)\\python36-32\\lib\\ast.py', 'PYMODULE'),
  ('inspect',
   'c:\\program files (x86)\\python36-32\\lib\\inspect.py',
   'PYMODULE'),
  ('cmd', 'c:\\program files (x86)\\python36-32\\lib\\cmd.py', 'PYMODULE'),
  ('bdb', 'c:\\program files (x86)\\python36-32\\lib\\bdb.py', 'PYMODULE'),
  ('opcode',
   'c:\\program files (x86)\\python36-32\\lib\\opcode.py',
   'PYMODULE'),
  ('dis', 'c:\\program files (x86)\\python36-32\\lib\\dis.py', 'PYMODULE'),
  ('codeop',
   'c:\\program files (x86)\\python36-32\\lib\\codeop.py',
   'PYMODULE'),
  ('code', 'c:\\program files (x86)\\python36-32\\lib\\code.py', 'PYMODULE'),
  ('glob', 'c:\\program files (x86)\\python36-32\\lib\\glob.py', 'PYMODULE'),
  ('shlex', 'c:\\program files (x86)\\python36-32\\lib\\shlex.py', 'PYMODULE'),
  ('importlib._bootstrap',
   'c:\\program files (x86)\\python36-32\\lib\\importlib\\_bootstrap.py',
   'PYMODULE'),
  ('importlib._bootstrap_external',
   'c:\\program files '
   '(x86)\\python36-32\\lib\\importlib\\_bootstrap_external.py',
   'PYMODULE'),
  ('importlib.machinery',
   'c:\\program files (x86)\\python36-32\\lib\\importlib\\machinery.py',
   'PYMODULE'),
  ('importlib.util',
   'c:\\program files (x86)\\python36-32\\lib\\importlib\\util.py',
   'PYMODULE'),
  ('importlib.abc',
   'c:\\program files (x86)\\python36-32\\lib\\importlib\\abc.py',
   'PYMODULE'),
  ('importlib',
   'c:\\program files (x86)\\python36-32\\lib\\importlib\\__init__.py',
   'PYMODULE'),
  ('pkgutil',
   'c:\\program files (x86)\\python36-32\\lib\\pkgutil.py',
   'PYMODULE'),
  ('xml',
   'c:\\program files (x86)\\python36-32\\lib\\xml\\__init__.py',
   'PYMODULE'),
  ('xml.sax.expatreader',
   'c:\\program files (x86)\\python36-32\\lib\\xml\\sax\\expatreader.py',
   'PYMODULE'),
  ('xml.sax.saxutils',
   'c:\\program files (x86)\\python36-32\\lib\\xml\\sax\\saxutils.py',
   'PYMODULE'),
  ('urllib.request',
   'c:\\program files (x86)\\python36-32\\lib\\urllib\\request.py',
   'PYMODULE'),
  ('getpass',
   'c:\\program files (x86)\\python36-32\\lib\\getpass.py',
   'PYMODULE'),
  ('nturl2path',
   'c:\\program files (x86)\\python36-32\\lib\\nturl2path.py',
   'PYMODULE'),
  ('ftplib',
   'c:\\program files (x86)\\python36-32\\lib\\ftplib.py',
   'PYMODULE'),
  ('netrc', 'c:\\program files (x86)\\python36-32\\lib\\netrc.py', 'PYMODULE'),
  ('http.cookiejar',
   'c:\\program files (x86)\\python36-32\\lib\\http\\cookiejar.py',
   'PYMODULE'),
  ('urllib.response',
   'c:\\program files (x86)\\python36-32\\lib\\urllib\\response.py',
   'PYMODULE'),
  ('urllib.error',
   'c:\\program files (x86)\\python36-32\\lib\\urllib\\error.py',
   'PYMODULE'),
  ('xml.sax',
   'c:\\program files (x86)\\python36-32\\lib\\xml\\sax\\__init__.py',
   'PYMODULE'),
  ('xml.sax.handler',
   'c:\\program files (x86)\\python36-32\\lib\\xml\\sax\\handler.py',
   'PYMODULE'),
  ('xml.sax._exceptions',
   'c:\\program files (x86)\\python36-32\\lib\\xml\\sax\\_exceptions.py',
   'PYMODULE'),
  ('xml.sax.xmlreader',
   'c:\\program files (x86)\\python36-32\\lib\\xml\\sax\\xmlreader.py',
   'PYMODULE'),
  ('xml.parsers',
   'c:\\program files (x86)\\python36-32\\lib\\xml\\parsers\\__init__.py',
   'PYMODULE'),
  ('xml.parsers.expat',
   'c:\\program files (x86)\\python36-32\\lib\\xml\\parsers\\expat.py',
   'PYMODULE'),
  ('plistlib',
   'c:\\program files (x86)\\python36-32\\lib\\plistlib.py',
   'PYMODULE'),
  ('platform',
   'c:\\program files (x86)\\python36-32\\lib\\platform.py',
   'PYMODULE'),
  ('token', 'c:\\program files (x86)\\python36-32\\lib\\token.py', 'PYMODULE'),
  ('tokenize',
   'c:\\program files (x86)\\python36-32\\lib\\tokenize.py',
   'PYMODULE'),
  ('urllib.parse',
   'c:\\program files (x86)\\python36-32\\lib\\urllib\\parse.py',
   'PYMODULE'),
  ('tempfile',
   'c:\\program files (x86)\\python36-32\\lib\\tempfile.py',
   'PYMODULE'),
  ('tty', 'c:\\program files (x86)\\python36-32\\lib\\tty.py', 'PYMODULE'),
  ('pydoc_data',
   'c:\\program files (x86)\\python36-32\\lib\\pydoc_data\\__init__.py',
   'PYMODULE'),
  ('pydoc_data.topics',
   'c:\\program files (x86)\\python36-32\\lib\\pydoc_data\\topics.py',
   'PYMODULE'),
  ('html.entities',
   'c:\\program files (x86)\\python36-32\\lib\\html\\entities.py',
   'PYMODULE'),
  ('html',
   'c:\\program files (x86)\\python36-32\\lib\\html\\__init__.py',
   'PYMODULE'),
  ('ipaddress',
   'c:\\program files (x86)\\python36-32\\lib\\ipaddress.py',
   'PYMODULE'),
  ('ssl', 'c:\\program files (x86)\\python36-32\\lib\\ssl.py', 'PYMODULE'),
  ('http.client',
   'c:\\program files (x86)\\python36-32\\lib\\http\\client.py',
   'PYMODULE'),
  ('mimetypes',
   'c:\\program files (x86)\\python36-32\\lib\\mimetypes.py',
   'PYMODULE'),
  ('socketserver',
   'c:\\program files (x86)\\python36-32\\lib\\socketserver.py',
   'PYMODULE'),
  ('http',
   'c:\\program files (x86)\\python36-32\\lib\\http\\__init__.py',
   'PYMODULE'),
  ('http.server',
   'c:\\program files (x86)\\python36-32\\lib\\http\\server.py',
   'PYMODULE'),
  ('optparse',
   'c:\\program files (x86)\\python36-32\\lib\\optparse.py',
   'PYMODULE'),
  ('uu', 'c:\\program files (x86)\\python36-32\\lib\\uu.py', 'PYMODULE'),
  ('quopri',
   'c:\\program files (x86)\\python36-32\\lib\\quopri.py',
   'PYMODULE'),
  ('email.feedparser',
   'c:\\program files (x86)\\python36-32\\lib\\email\\feedparser.py',
   'PYMODULE'),
  ('email.parser',
   'c:\\program files (x86)\\python36-32\\lib\\email\\parser.py',
   'PYMODULE'),
  ('email',
   'c:\\program files (x86)\\python36-32\\lib\\email\\__init__.py',
   'PYMODULE'),
  ('calendar',
   'c:\\program files (x86)\\python36-32\\lib\\calendar.py',
   'PYMODULE'),
  ('email._parseaddr',
   'c:\\program files (x86)\\python36-32\\lib\\email\\_parseaddr.py',
   'PYMODULE'),
  ('email.utils',
   'c:\\program files (x86)\\python36-32\\lib\\email\\utils.py',
   'PYMODULE'),
  ('email.errors',
   'c:\\program files (x86)\\python36-32\\lib\\email\\errors.py',
   'PYMODULE'),
  ('email.header',
   'c:\\program files (x86)\\python36-32\\lib\\email\\header.py',
   'PYMODULE'),
  ('email._policybase',
   'c:\\program files (x86)\\python36-32\\lib\\email\\_policybase.py',
   'PYMODULE'),
  ('email.base64mime',
   'c:\\program files (x86)\\python36-32\\lib\\email\\base64mime.py',
   'PYMODULE'),
  ('email.encoders',
   'c:\\program files (x86)\\python36-32\\lib\\email\\encoders.py',
   'PYMODULE'),
  ('email.charset',
   'c:\\program files (x86)\\python36-32\\lib\\email\\charset.py',
   'PYMODULE'),
  ('base64',
   'c:\\program files (x86)\\python36-32\\lib\\base64.py',
   'PYMODULE'),
  ('email._encoded_words',
   'c:\\program files (x86)\\python36-32\\lib\\email\\_encoded_words.py',
   'PYMODULE'),
  ('hashlib',
   'c:\\program files (x86)\\python36-32\\lib\\hashlib.py',
   'PYMODULE'),
  ('bisect',
   'c:\\program files (x86)\\python36-32\\lib\\bisect.py',
   'PYMODULE'),
  ('random',
   'c:\\program files (x86)\\python36-32\\lib\\random.py',
   'PYMODULE'),
  ('email.generator',
   'c:\\program files (x86)\\python36-32\\lib\\email\\generator.py',
   'PYMODULE'),
  ('email.iterators',
   'c:\\program files (x86)\\python36-32\\lib\\email\\iterators.py',
   'PYMODULE'),
  ('urllib',
   'c:\\program files (x86)\\python36-32\\lib\\urllib\\__init__.py',
   'PYMODULE'),
  ('email._header_value_parser',
   'c:\\program files (x86)\\python36-32\\lib\\email\\_header_value_parser.py',
   'PYMODULE'),
  ('email.headerregistry',
   'c:\\program files (x86)\\python36-32\\lib\\email\\headerregistry.py',
   'PYMODULE'),
  ('email.quoprimime',
   'c:\\program files (x86)\\python36-32\\lib\\email\\quoprimime.py',
   'PYMODULE'),
  ('email.contentmanager',
   'c:\\program files (x86)\\python36-32\\lib\\email\\contentmanager.py',
   'PYMODULE'),
  ('email.policy',
   'c:\\program files (x86)\\python36-32\\lib\\email\\policy.py',
   'PYMODULE'),
  ('email.message',
   'c:\\program files (x86)\\python36-32\\lib\\email\\message.py',
   'PYMODULE'),
  ('bz2', 'c:\\program files (x86)\\python36-32\\lib\\bz2.py', 'PYMODULE'),
  ('lzma', 'c:\\program files (x86)\\python36-32\\lib\\lzma.py', 'PYMODULE'),
  ('_compression',
   'c:\\program files (x86)\\python36-32\\lib\\_compression.py',
   'PYMODULE'),
  ('gzip', 'c:\\program files (x86)\\python36-32\\lib\\gzip.py', 'PYMODULE'),
  ('tarfile',
   'c:\\program files (x86)\\python36-32\\lib\\tarfile.py',
   'PYMODULE'),
  ('py_compile',
   'c:\\program files (x86)\\python36-32\\lib\\py_compile.py',
   'PYMODULE'),
  ('zipfile',
   'c:\\program files (x86)\\python36-32\\lib\\zipfile.py',
   'PYMODULE'),
  ('shutil',
   'c:\\program files (x86)\\python36-32\\lib\\shutil.py',
   'PYMODULE'),
  ('socket',
   'c:\\program files (x86)\\python36-32\\lib\\socket.py',
   'PYMODULE'),
  ('webbrowser',
   'c:\\program files (x86)\\python36-32\\lib\\webbrowser.py',
   'PYMODULE'),
  ('pydoc', 'c:\\program files (x86)\\python36-32\\lib\\pydoc.py', 'PYMODULE'),
  ('getopt',
   'c:\\program files (x86)\\python36-32\\lib\\getopt.py',
   'PYMODULE'),
  ('pdb', 'c:\\program files (x86)\\python36-32\\lib\\pdb.py', 'PYMODULE'),
  ('unittest.util',
   'c:\\program files (x86)\\python36-32\\lib\\unittest\\util.py',
   'PYMODULE'),
  ('unittest.result',
   'c:\\program files (x86)\\python36-32\\lib\\unittest\\result.py',
   'PYMODULE'),
  ('string',
   'c:\\program files (x86)\\python36-32\\lib\\string.py',
   'PYMODULE'),
  ('unittest.case',
   'c:\\program files (x86)\\python36-32\\lib\\unittest\\case.py',
   'PYMODULE'),
  ('unittest.suite',
   'c:\\program files (x86)\\python36-32\\lib\\unittest\\suite.py',
   'PYMODULE'),
  ('unittest.loader',
   'c:\\program files (x86)\\python36-32\\lib\\unittest\\loader.py',
   'PYMODULE'),
  ('unittest.runner',
   'c:\\program files (x86)\\python36-32\\lib\\unittest\\runner.py',
   'PYMODULE'),
  ('unittest.main',
   'c:\\program files (x86)\\python36-32\\lib\\unittest\\main.py',
   'PYMODULE'),
  ('unittest.signals',
   'c:\\program files (x86)\\python36-32\\lib\\unittest\\signals.py',
   'PYMODULE'),
  ('unittest',
   'c:\\program files (x86)\\python36-32\\lib\\unittest\\__init__.py',
   'PYMODULE'),
  ('doctest',
   'c:\\program files (x86)\\python36-32\\lib\\doctest.py',
   'PYMODULE'),
  ('textwrap',
   'c:\\program files (x86)\\python36-32\\lib\\textwrap.py',
   'PYMODULE'),
  ('gettext',
   'c:\\program files (x86)\\python36-32\\lib\\gettext.py',
   'PYMODULE'),
  ('argparse',
   'c:\\program files (x86)\\python36-32\\lib\\argparse.py',
   'PYMODULE'),
  ('pprint',
   'c:\\program files (x86)\\python36-32\\lib\\pprint.py',
   'PYMODULE'),
  ('pickle',
   'c:\\program files (x86)\\python36-32\\lib\\pickle.py',
   'PYMODULE'),
  ('tracemalloc',
   'c:\\program files (x86)\\python36-32\\lib\\tracemalloc.py',
   'PYMODULE'),
  ('copy', 'c:\\program files (x86)\\python36-32\\lib\\copy.py', 'PYMODULE'),
  ('stat', 'c:\\program files (x86)\\python36-32\\lib\\stat.py', 'PYMODULE'),
  ('genericpath',
   'c:\\program files (x86)\\python36-32\\lib\\genericpath.py',
   'PYMODULE'),
  ('posixpath',
   'c:\\program files (x86)\\python36-32\\lib\\posixpath.py',
   'PYMODULE'),
  ('signal',
   'c:\\program files (x86)\\python36-32\\lib\\signal.py',
   'PYMODULE'),
  ('contextlib',
   'c:\\program files (x86)\\python36-32\\lib\\contextlib.py',
   'PYMODULE'),
  ('_threading_local',
   'c:\\program files (x86)\\python36-32\\lib\\_threading_local.py',
   'PYMODULE'),
  ('selectors',
   'c:\\program files (x86)\\python36-32\\lib\\selectors.py',
   'PYMODULE'),
  ('_dummy_thread',
   'c:\\program files (x86)\\python36-32\\lib\\_dummy_thread.py',
   'PYMODULE'),
  ('dummy_threading',
   'c:\\program files (x86)\\python36-32\\lib\\dummy_threading.py',
   'PYMODULE'),
  ('subprocess',
   'c:\\program files (x86)\\python36-32\\lib\\subprocess.py',
   'PYMODULE'),
  ('gammaCRC',
   'G:\\Gamma_Register_All\\Gamma_Register_2_3\\gammaCRC.py',
   'PYMODULE'),
  ('gammaCOM',
   'G:\\Gamma_Register_All\\Gamma_Register_2_3\\gammaCOM.py',
   'PYMODULE'),
  ('serial',
   'c:\\program files '
   '(x86)\\python36-32\\lib\\site-packages\\serial\\__init__.py',
   'PYMODULE'),
  ('serial.serialjava',
   'c:\\program files '
   '(x86)\\python36-32\\lib\\site-packages\\serial\\serialjava.py',
   'PYMODULE'),
  ('serial.serialposix',
   'c:\\program files '
   '(x86)\\python36-32\\lib\\site-packages\\serial\\serialposix.py',
   'PYMODULE'),
  ('serial.serialwin32',
   'c:\\program files '
   '(x86)\\python36-32\\lib\\site-packages\\serial\\serialwin32.py',
   'PYMODULE'),
  ('ctypes',
   'c:\\program files (x86)\\python36-32\\lib\\ctypes\\__init__.py',
   'PYMODULE'),
  ('ctypes._endian',
   'c:\\program files (x86)\\python36-32\\lib\\ctypes\\_endian.py',
   'PYMODULE'),
  ('serial.win32',
   'c:\\program files (x86)\\python36-32\\lib\\site-packages\\serial\\win32.py',
   'PYMODULE'),
  ('ctypes.wintypes',
   'c:\\program files (x86)\\python36-32\\lib\\ctypes\\wintypes.py',
   'PYMODULE'),
  ('serial.serialcli',
   'c:\\program files '
   '(x86)\\python36-32\\lib\\site-packages\\serial\\serialcli.py',
   'PYMODULE'),
  ('serial.serialutil',
   'c:\\program files '
   '(x86)\\python36-32\\lib\\site-packages\\serial\\serialutil.py',
   'PYMODULE'),
  ('gammaSerial',
   'G:\\Gamma_Register_All\\Gamma_Register_2_3\\gammaSerial.py',
   'PYMODULE'),
  ('xlsxwriter',
   'c:\\program files '
   '(x86)\\python36-32\\lib\\site-packages\\xlsxwriter\\__init__.py',
   'PYMODULE'),
  ('xlsxwriter.workbook',
   'c:\\program files '
   '(x86)\\python36-32\\lib\\site-packages\\xlsxwriter\\workbook.py',
   'PYMODULE'),
  ('xlsxwriter.chart_stock',
   'c:\\program files '
   '(x86)\\python36-32\\lib\\site-packages\\xlsxwriter\\chart_stock.py',
   'PYMODULE'),
  ('xlsxwriter.chart_scatter',
   'c:\\program files '
   '(x86)\\python36-32\\lib\\site-packages\\xlsxwriter\\chart_scatter.py',
   'PYMODULE'),
  ('xlsxwriter.chart_radar',
   'c:\\program files '
   '(x86)\\python36-32\\lib\\site-packages\\xlsxwriter\\chart_radar.py',
   'PYMODULE'),
  ('xlsxwriter.chart_line',
   'c:\\program files '
   '(x86)\\python36-32\\lib\\site-packages\\xlsxwriter\\chart_line.py',
   'PYMODULE'),
  ('xlsxwriter.chart_doughnut',
   'c:\\program files '
   '(x86)\\python36-32\\lib\\site-packages\\xlsxwriter\\chart_doughnut.py',
   'PYMODULE'),
  ('xlsxwriter.chart_column',
   'c:\\program files '
   '(x86)\\python36-32\\lib\\site-packages\\xlsxwriter\\chart_column.py',
   'PYMODULE'),
  ('xlsxwriter.chart_bar',
   'c:\\program files '
   '(x86)\\python36-32\\lib\\site-packages\\xlsxwriter\\chart_bar.py',
   'PYMODULE'),
  ('xlsxwriter.chart_area',
   'c:\\program files '
   '(x86)\\python36-32\\lib\\site-packages\\xlsxwriter\\chart_area.py',
   'PYMODULE'),
  ('xlsxwriter.utility',
   'c:\\program files '
   '(x86)\\python36-32\\lib\\site-packages\\xlsxwriter\\utility.py',
   'PYMODULE'),
  ('xlsxwriter.packager',
   'c:\\program files '
   '(x86)\\python36-32\\lib\\site-packages\\xlsxwriter\\packager.py',
   'PYMODULE'),
  ('xlsxwriter.comments',
   'c:\\program files '
   '(x86)\\python36-32\\lib\\site-packages\\xlsxwriter\\comments.py',
   'PYMODULE'),
  ('xlsxwriter.table',
   'c:\\program files '
   '(x86)\\python36-32\\lib\\site-packages\\xlsxwriter\\table.py',
   'PYMODULE'),
  ('xlsxwriter.vml',
   'c:\\program files '
   '(x86)\\python36-32\\lib\\site-packages\\xlsxwriter\\vml.py',
   'PYMODULE'),
  ('xlsxwriter.theme',
   'c:\\program files '
   '(x86)\\python36-32\\lib\\site-packages\\xlsxwriter\\theme.py',
   'PYMODULE'),
  ('xlsxwriter.styles',
   'c:\\program files '
   '(x86)\\python36-32\\lib\\site-packages\\xlsxwriter\\styles.py',
   'PYMODULE'),
  ('xlsxwriter.relationships',
   'c:\\program files '
   '(x86)\\python36-32\\lib\\site-packages\\xlsxwriter\\relationships.py',
   'PYMODULE'),
  ('xlsxwriter.custom',
   'c:\\program files '
   '(x86)\\python36-32\\lib\\site-packages\\xlsxwriter\\custom.py',
   'PYMODULE'),
  ('xlsxwriter.core',
   'c:\\program files '
   '(x86)\\python36-32\\lib\\site-packages\\xlsxwriter\\core.py',
   'PYMODULE'),
  ('xlsxwriter.contenttypes',
   'c:\\program files '
   '(x86)\\python36-32\\lib\\site-packages\\xlsxwriter\\contenttypes.py',
   'PYMODULE'),
  ('xlsxwriter.app',
   'c:\\program files '
   '(x86)\\python36-32\\lib\\site-packages\\xlsxwriter\\app.py',
   'PYMODULE'),
  ('xlsxwriter.format',
   'c:\\program files '
   '(x86)\\python36-32\\lib\\site-packages\\xlsxwriter\\format.py',
   'PYMODULE'),
  ('xlsxwriter.sharedstrings',
   'c:\\program files '
   '(x86)\\python36-32\\lib\\site-packages\\xlsxwriter\\sharedstrings.py',
   'PYMODULE'),
  ('xlsxwriter.chartsheet',
   'c:\\program files '
   '(x86)\\python36-32\\lib\\site-packages\\xlsxwriter\\chartsheet.py',
   'PYMODULE'),
  ('xlsxwriter.drawing',
   'c:\\program files '
   '(x86)\\python36-32\\lib\\site-packages\\xlsxwriter\\drawing.py',
   'PYMODULE'),
  ('xlsxwriter.shape',
   'c:\\program files '
   '(x86)\\python36-32\\lib\\site-packages\\xlsxwriter\\shape.py',
   'PYMODULE'),
  ('xlsxwriter.worksheet',
   'c:\\program files '
   '(x86)\\python36-32\\lib\\site-packages\\xlsxwriter\\worksheet.py',
   'PYMODULE'),
  ('xlsxwriter.compatibility',
   'c:\\program files '
   '(x86)\\python36-32\\lib\\site-packages\\xlsxwriter\\compatibility.py',
   'PYMODULE'),
  ('xlsxwriter.compat_collections',
   'c:\\program files '
   '(x86)\\python36-32\\lib\\site-packages\\xlsxwriter\\compat_collections.py',
   'PYMODULE'),
  ('fractions',
   'c:\\program files (x86)\\python36-32\\lib\\fractions.py',
   'PYMODULE'),
  ('numbers',
   'c:\\program files (x86)\\python36-32\\lib\\numbers.py',
   'PYMODULE'),
  ('decimal',
   'c:\\program files (x86)\\python36-32\\lib\\decimal.py',
   'PYMODULE'),
  ('_pydecimal',
   'c:\\program files (x86)\\python36-32\\lib\\_pydecimal.py',
   'PYMODULE'),
  ('xlsxwriter.chart_pie',
   'c:\\program files '
   '(x86)\\python36-32\\lib\\site-packages\\xlsxwriter\\chart_pie.py',
   'PYMODULE'),
  ('xlsxwriter.chart',
   'c:\\program files '
   '(x86)\\python36-32\\lib\\site-packages\\xlsxwriter\\chart.py',
   'PYMODULE'),
  ('xlsxwriter.xmlwriter',
   'c:\\program files '
   '(x86)\\python36-32\\lib\\site-packages\\xlsxwriter\\xmlwriter.py',
   'PYMODULE'),
  ('threading',
   'c:\\program files (x86)\\python36-32\\lib\\threading.py',
   'PYMODULE'),
  ('logging',
   'c:\\program files (x86)\\python36-32\\lib\\logging\\__init__.py',
   'PYMODULE'),
  ('datetime',
   'c:\\program files (x86)\\python36-32\\lib\\datetime.py',
   'PYMODULE'),
  ('tkinter.filedialog',
   'c:\\program files (x86)\\python36-32\\lib\\tkinter\\filedialog.py',
   'PYMODULE'),
  ('tkinter.commondialog',
   'c:\\program files (x86)\\python36-32\\lib\\tkinter\\commondialog.py',
   'PYMODULE'),
  ('tkinter.dialog',
   'c:\\program files (x86)\\python36-32\\lib\\tkinter\\dialog.py',
   'PYMODULE'),
  ('tkinter.ttk',
   'c:\\program files (x86)\\python36-32\\lib\\tkinter\\ttk.py',
   'PYMODULE'),
  ('tkinter.messagebox',
   'c:\\program files (x86)\\python36-32\\lib\\tkinter\\messagebox.py',
   'PYMODULE'),
  ('tkinter',
   'c:\\program files (x86)\\python36-32\\lib\\tkinter\\__init__.py',
   'PYMODULE'),
  ('tkinter.constants',
   'c:\\program files (x86)\\python36-32\\lib\\tkinter\\constants.py',
   'PYMODULE'),
  ('os', 'c:\\program files (x86)\\python36-32\\lib\\os.py', 'PYMODULE')])
